out/dump.vcd
$date
	Tue Nov 11 23:44:29 2025
$end
$version
	Icarus Verilog
$end
$timescale
	1s
$end
$scope module test $end
$var wire 8 ! regA_out [7:0] $end
$var wire 8 " regB_out [7:0] $end
$var reg 1 # add_a_dir_test_failed $end
$var reg 1 $ clk $end
$var reg 1 % jeq_test_1_failed $end
$var reg 1 & mem_sequence_test_failed $end
$scope module Comp $end
$var wire 1 $ clk $end
$var wire 4 ' stat_out_bus [3:0] $end
$var wire 8 ( regB_out_bus [7:0] $end
$var wire 8 ) regA_out_bus [7:0] $end
$var wire 8 * pc_out_bus [7:0] $end
$var wire 8 + mux_data_out_bus [7:0] $end
$var wire 8 , muxB_out_bus [7:0] $end
$var wire 8 - muxA_out_bus [7:0] $end
$var wire 15 . im_out_bus [14:0] $end
$var wire 8 / datmem_out_bus [7:0] $end
$var wire 1 0 cu_wren_out $end
$var wire 1 1 cu_sdata_out $end
$var wire 2 2 cu_sb_out [1:0] $end
$var wire 2 3 cu_sa_out [1:0] $end
$var wire 3 4 cu_s_out [2:0] $end
$var wire 1 5 cu_pcload_out $end
$var wire 1 6 cu_loadB_out $end
$var wire 1 7 cu_loadA_out $end
$var wire 8 8 alu_out_bus [7:0] $end
$var wire 4 9 alu_flags_bus [3:0] $end
$scope module ALU $end
$var wire 3 : s [2:0] $end
$var wire 8 ; b [7:0] $end
$var wire 8 < a [7:0] $end
$var reg 4 = ZNCV [3:0] $end
$var reg 8 > out [7:0] $end
$upscope $end
$scope module CU $end
$var wire 7 ? opcode [6:0] $end
$var wire 4 @ status [3:0] $end
$var reg 1 0 Dw $end
$var reg 3 A S [2:0] $end
$var reg 1 7 la $end
$var reg 1 6 lb $end
$var reg 1 5 lpc $end
$var reg 2 B sa [1:0] $end
$var reg 2 C sb [1:0] $end
$var reg 1 1 sd $end
$upscope $end
$scope module DM $end
$var wire 1 $ clk $end
$var wire 8 D datain [7:0] $end
$var wire 8 E out [7:0] $end
$var wire 1 0 wren $end
$var wire 8 F address [7:0] $end
$upscope $end
$scope module IM $end
$var wire 15 G out [14:0] $end
$var wire 8 H address [7:0] $end
$upscope $end
$scope module PC $end
$var wire 1 $ clk $end
$var wire 8 I pcim [7:0] $end
$var wire 1 5 pcload $end
$var reg 8 J pc [7:0] $end
$upscope $end
$scope module muxA $end
$var wire 8 K e1 [7:0] $end
$var wire 8 L e2 [7:0] $end
$var wire 2 M s [1:0] $end
$var wire 8 N e3 [7:0] $end
$var wire 8 O e0 [7:0] $end
$var reg 8 P out [7:0] $end
$upscope $end
$scope module muxB $end
$var wire 8 Q e1 [7:0] $end
$var wire 8 R e2 [7:0] $end
$var wire 8 S e3 [7:0] $end
$var wire 2 T s [1:0] $end
$var wire 8 U e0 [7:0] $end
$var reg 8 V out [7:0] $end
$upscope $end
$scope module muxdata $end
$var wire 8 W e0 [7:0] $end
$var wire 1 1 s $end
$var wire 8 X e1 [7:0] $end
$var reg 8 Y out [7:0] $end
$upscope $end
$scope module regA $end
$var wire 1 $ clk $end
$var wire 8 Z data [7:0] $end
$var wire 1 7 load $end
$var reg 8 [ out [7:0] $end
$upscope $end
$scope module regB $end
$var wire 1 $ clk $end
$var wire 8 \ data [7:0] $end
$var wire 1 6 load $end
$var reg 8 ] out [7:0] $end
$upscope $end
$scope module stat $end
$var wire 1 $ clk $end
$var wire 4 ^ flags [3:0] $end
$var reg 4 _ out [3:0] $end
$upscope $end
$upscope $end
$upscope $end
$enddefinitions $end
$comment Show the parameter values. $end
$dumpall
$end
#0
$dumpvars
bx _
b0 ^
b0 ]
b1100011 \
b0 [
b1100011 Z
b1100011 Y
b0 X
b1100011 W
b1100011 V
b0 U
b10 T
b0 S
b1100011 R
bx Q
b0 P
b0 O
b0 N
b10 M
b0 L
b1 K
b0 J
b1100011 I
b0 H
b1101100011 G
b1100011 F
bx E
b1100011 D
b10 C
b10 B
b0 A
bx @
b11 ?
b1100011 >
b0 =
b0 <
b1100011 ;
b0 :
b0 9
b1100011 8
07
16
05
b0 4
b10 3
b10 2
01
00
bx /
b1101100011 .
b0 -
b1100011 ,
b1100011 +
b0 *
b0 )
b0 (
bx '
0&
0%
0$
0#
b0 "
b0 !
$end
#1
b1100011 8
b1100011 >
b1100011 D
b1100011 Z
b1100011 \
b110010 +
b110010 F
b110010 Y
10
b0 2
b0 C
b0 T
06
b1100011 ,
b1100011 ;
b1100011 V
b110010 W
b101000 ?
b110010 R
b110010 I
b10100000110010 .
b10100000110010 G
b1 *
b1 H
b1 J
b1100011 "
b1100011 (
b1100011 N
b1100011 U
b1100011 X
b1100011 ]
b0 '
b0 @
b0 _
1$
#2
0$
#3
00
b1 2
b1 C
b1 T
17
b100101 ?
b1100011 /
b1100011 E
b1100011 Q
b10010100110010 .
b10010100110010 G
b10 *
b10 H
b10 J
1$
#4
0$
#5
b1111011 8
b1111011 >
b1111011 D
b1111011 Z
b1111011 \
b1111011 ,
b1111011 ;
b1111011 V
bx /
bx E
bx Q
b1111011 +
b1111011 F
b1111011 Y
b10 2
b10 C
b10 T
b1111011 W
b10 ?
b1111011 R
b1111011 I
b1001111011 .
b1001111011 G
b11 *
b11 H
b11 J
b1100011 !
b1100011 )
b1100011 O
b1100011 [
1$
#6
0$
#7
b1111011 -
b1111011 <
b1111011 P
b1111011 8
b1111011 >
b1111011 D
b1111011 Z
b1111011 \
b110011 +
b110011 F
b110011 Y
10
b11 2
b11 C
b11 T
b0 3
b0 B
b0 M
07
b0 ,
b0 ;
b0 V
b110011 W
b100111 ?
b110011 R
b110011 I
b1111011 !
b1111011 )
b1111011 O
b1111011 [
b10011100110011 .
b10011100110011 G
b100 *
b100 H
b100 J
1$
#8
0$
#9
b1111011 ,
b1111011 ;
b1111011 V
b0 -
b0 <
b0 P
00
b1 2
b1 C
b1 T
b10 3
b10 B
b10 M
16
b100110 ?
b10011000110011 .
b10011000110011 G
b101 *
b101 H
b101 J
b1111011 /
b1111011 E
b1111011 Q
1$
#10
0$
#11
b11111111 8
b11111111 >
b11111111 D
b11111111 Z
b11111111 \
b10 2
b10 C
b10 T
06
17
b11111111 ,
b11111111 ;
b11111111 V
bx /
bx E
bx Q
b11111111 +
b11111111 F
b11111111 Y
b11111111 W
b10 ?
b11111111 R
b11111111 I
b1111011 "
b1111011 (
b1111011 N
b1111011 U
b1111011 X
b1111011 ]
b1011111111 .
b1011111111 G
b110 *
b110 H
b110 J
1$
#12
0$
#13
b11111111 -
b11111111 <
b11111111 P
b11111111 8
b11111111 >
b11111111 D
b11111111 Z
b11111111 \
b1100011 /
b1100011 E
b1100011 Q
b110010 +
b110010 F
b110010 Y
10
b11 2
b11 C
b11 T
b0 3
b0 B
b0 M
07
b0 ,
b0 ;
b0 V
b110010 W
b100111 ?
b110010 R
b110010 I
b10011100110010 .
b10011100110010 G
b111 *
b111 H
b111 J
b11111111 !
b11111111 )
b11111111 O
b11111111 [
1$
#14
0$
#15
b1000 9
b1000 =
b1000 ^
b0 8
b0 >
b0 D
b0 Z
b0 \
b0 -
b0 <
b0 P
b0 +
b0 F
b0 Y
00
b10 2
b10 C
b10 T
b10 3
b10 B
b10 M
17
b0 W
b10 ?
b0 R
b0 I
b1 /
b1 E
b1 Q
b1000000000 .
b1000000000 G
b1000 *
b1000 H
b1000 J
1$
#16
0$
#17
b0 9
b0 =
b0 ^
b11111111 8
b11111111 >
b11111111 D
b11111111 Z
b11111111 \
b11111111 /
b11111111 E
b11111111 Q
b110010 +
b110010 F
b110010 Y
b1 2
b1 C
b1 T
b11111111 ,
b11111111 ;
b11111111 V
b110010 W
b100101 ?
b110010 R
b110010 I
b10010100110010 .
b10010100110010 G
b1001 *
b1001 H
b1001 J
b0 !
b0 )
b0 O
b0 [
b1000 '
b1000 @
b1000 _
1$
#18
0$
#19
b1100100 8
b1100100 >
b1100100 D
b1100100 Z
b1100100 \
b1100100 ,
b1100100 ;
b1100100 V
bx /
bx E
bx Q
b1100100 +
b1100100 F
b1100100 Y
b10 2
b10 C
b10 T
b1100100 W
b10 ?
b1100100 R
b1100100 I
b0 '
b0 @
b0 _
b11111111 !
b11111111 )
b11111111 O
b11111111 [
b1001100100 .
b1001100100 G
b1010 *
b1010 H
b1010 J
1$
#20
0$
#21
b110010 8
b110010 >
b110010 D
b110010 Z
b110010 \
b11111111 /
b11111111 E
b11111111 Q
b110010 +
b110010 F
b110010 Y
16
07
b110010 ,
b110010 ;
b110010 V
b110010 W
b11 ?
b110010 R
b110010 I
b1100110010 .
b1100110010 G
b1011 *
b1011 H
b1011 J
b1100100 !
b1100100 )
b1100100 O
b1100100 [
1$
#22
0$
#23
b110010 8
b110010 >
b110010 D
b110010 Z
b110010 \
10
b0 2
b0 C
b0 T
06
b110010 ,
b110010 ;
b110010 V
bx /
bx E
bx Q
b1111000 +
b1111000 F
b1111000 Y
b1111000 W
b101000 ?
b1111000 R
b1111000 I
b110010 "
b110010 (
b110010 N
b110010 U
b110010 X
b110010 ]
b10100001111000 .
b10100001111000 G
b1100 *
b1100 H
b1100 J
1$
#24
0$
#25
b1 9
b1 =
b1 ^
b10010110 8
b10010110 >
b10010110 D
b10010110 Z
b10010110 \
b1100100 -
b1100100 <
b1100100 P
00
b1 2
b1 C
b1 T
b0 3
b0 B
b0 M
17
b101100 ?
b10110001111000 .
b10110001111000 G
b1101 *
b1101 H
b1101 J
b110010 /
b110010 E
b110010 Q
1$
#26
0$
#27
b11001 ,
b11001 ;
b11001 V
b0 9
b0 =
b0 ^
b11001 8
b11001 >
b11001 D
b11001 Z
b11001 \
bx /
bx E
bx Q
b11001 +
b11001 F
b11001 Y
b10 2
b10 C
b10 T
b10 3
b10 B
b10 M
b0 -
b0 <
b0 P
b11001 W
b10 ?
b11001 R
b11001 I
b1 '
b1 @
b1 _
b10010110 !
b10010110 )
b10010110 O
b10010110 [
b1000011001 .
b1000011001 G
b1110 *
b1110 H
b1110 J
1$
#28
0$
#29
16
07
b11 ?
b1100011001 .
b1100011001 G
b1111 *
b1111 H
b1111 J
b11001 !
b11001 )
b11001 O
b11001 [
b0 '
b0 @
b0 _
1$
#30
0$
#31
b11001 -
b11001 <
b11001 P
b1000 9
b1000 =
b1000 ^
b0 8
b0 >
b0 D
b0 Z
b0 \
b0 2
b0 C
b0 T
b0 3
b0 B
b0 M
b1 4
b1 :
b1 A
06
b11001 ,
b11001 ;
b11001 V
b1 /
b1 E
b1 Q
b0 +
b0 F
b0 Y
b0 W
b1001101 ?
b0 R
b0 I
b11001 "
b11001 (
b11001 N
b11001 U
b11001 X
b11001 ]
b100110100000000 .
b100110100000000 G
b10000 *
b10000 H
b10000 J
1$
#32
0$
#33
b0 9
b0 =
b0 ^
b110010 8
b110010 >
b110010 D
b110010 Z
b110010 \
bx /
bx E
bx Q
b10100 +
b10100 F
b10100 Y
15
b0 4
b0 :
b0 A
b10100 W
b1010100 ?
b10100 R
b10100 I
b101010000010100 .
b101010000010100 G
b10001 *
b10001 H
b10001 J
b1000 '
b1000 @
b1000 _
1$
#34
0$
#35
b1 8
b1 >
b1 D
b1 Z
b1 \
b1 ,
b1 ;
b1 V
b0 -
b0 <
b0 P
b1 /
b1 E
b1 Q
b1 +
b1 F
b1 Y
05
b10 2
b10 C
b10 T
b10 3
b10 B
b10 M
16
b1 W
b11 ?
b1 R
b1 I
b0 '
b0 @
b0 _
b1100000001 .
b1100000001 G
b10100 *
b10100 H
b10100 J
1$
#36
0$
#37
b1 8
b1 >
b1 D
b1 Z
b1 \
bx /
bx E
bx Q
b1100100 +
b1100100 F
b1100100 Y
10
b0 2
b0 C
b0 T
06
b1 ,
b1 ;
b1 V
b1100100 W
b101000 ?
b1100100 R
b1100100 I
b10100001100100 .
b10100001100100 G
b10101 *
b10101 H
b10101 J
b1 "
b1 (
b1 N
b1 U
b1 X
b1 ]
1$
#38
0$
#39
b11010 8
b11010 >
b11010 D
b11010 Z
b11010 \
b11001 -
b11001 <
b11001 P
bx +
bx F
bx Y
00
b0 3
b0 B
b0 M
bx W
bx ?
bx R
bx I
bx /
bx E
bx Q
bx .
bx G
b10110 *
b10110 H
b10110 J
1$
#40
0$
#41
b10111 *
b10111 H
b10111 J
1$
#42
0$
#43
b11000 *
b11000 H
b11000 J
1$
#44
0$
#45
b11001 *
b11001 H
b11001 J
1$
#46
0$
#47
b11010 *
b11010 H
b11010 J
1$
